[gd_scene load_steps=2 format=2]

[ext_resource path="res://tetrominoes/base.tscn" type="PackedScene" id=1]

[node name="Tetromino" instance=ExtResource( 1 )]
width = 2
height = 3

[node name="TileMap" parent="." index="0"]
position = Vector2( -48, -72 )
tile_data = PoolIntArray( 0, 2, 0, 65536, 2, 0, 65537, 2, 0, 131073, 2, 0 )
